%YAML 1.1
%TAG !u! tag:unity3d.com,2011:
--- !u!114 &11400000
MonoBehaviour:
  m_ObjectHideFlags: 0
  m_CorrespondingSourceObject: {fileID: 0}
  m_PrefabInternal: {fileID: 0}
  m_GameObject: {fileID: 0}
  m_Enabled: 1
  m_EditorHideFlags: 0
  m_Script: {fileID: 11500000, guid: 27786222f436ad443aeb1bd8fe43e22d, type: 3}
  m_Name: RangedUnit
  m_EditorClassIdentifier: 
  preRequisites:
  - {fileID: 11400000, guid: 33f3b3fbe70ddcf47b9d8f53c97b792b, type: 2}
  activatedFor: []
